ID,e0,eT,eG,eTG,Case
Desert,1,0,0,0,0
Forest,0,1,0,0,1
Grassland,0,0,1,0,2
Savanna,0,0,0,1,3
Savanna1 - Savanna2,0,0,0,2,4
Forest - Grassland,0,1,1,0,5
Forest - Savanna,0,1,0,1,6
Grassland - Savanna,0,0,1,1,7
Forest - Grassland - Savanna,0,1,1,1,8
Forest - Savanna1 - Savanna2,0,1,0,2,9
Grassland - Savanna1 - Savanna2,0,0,1,2,10
Savanna1 - Savanna2 - Savanna3,0,0,0,3,11
Savanna1 - Savanna2 - Savanna3 - Savanna4,0,0,0,3,12
Forest - Grassland - Savanna1 - Savanna2,0,1,1,2,13
Forest - Savanna1 - Savanna2 - Savanna3,0,1,1,2,14
Savanna1 - Savanna2 - Savanna3 - Savanna4 - Savanna5,0,0,0,5,15
Forest - Grassland - Savanna1 - Savanna2 - Savanna3,0,1,1,3,16
