label,id,value,min,max,step,type,description,Unit
c<SUB>T</SUB>,cT,430,423.8,523.4,0.1,secondary,Maximum TREE biomass carrying capacity,t
a<SUB>T</SUB>,aT,0.004,0.0038,0.0054,0.0001,secondary,Steepness of the TREE carrying capacity sigmoid function,/year
d<SUB>T</SUB>,dT,107,78.26,167.34,0.01,secondary,Inflection point location in the TREE carrying capacity sigmoid function,-
c<SUB>G</SUB>,cG,20,12.3,21.82,0.01,secondary,Maximum GRASS biomass carrying capacity,t/ha
a<SUB>G</SUB>,aG,0.0029,0.0023,0.0042,0.0001,secondary,Steepness of the GRASS carrying capacity sigmoid function,/year
d<SUB>G</SUB>,dG,14.73,11.36,24.05,0.01,secondary,Inflection point location in the GRASS carrying capacity sigmoid function,-
γ<SUB>T</SUB>,gammaT,1.5,1,3,0.1,main,Maximal TREE growth rate,/year
b<SUB>T</SUB>,bT,1100,900,1300,1,main,Half-saturation,mm/year
γ<SUB>G</SUB>,gammaG,2.7,0.5,3,0.1,main,Maximal GRASS growth rate,/year
b<SUB>G</SUB>,bG,500,400,650,1,main,Half-saturation,mm/year
δ<SUB>T</SUB>,deltaT,0.1,0.015,0.3,0.001,main,Death rate (due to browsing),/year
δ<SUB>G</SUB>,deltaG,0.1,0,0.6,0.001,main,Death rate (due to grazing),/year
λ_f<SUB>G</SUB>_max,lambdafG_max,0.4,0.2,0.7,0.01,secondary,Maximal loss of tree/shrib biomass due to fire in open vegetation,-
λ_f<SUB>G</SUB>_min,lambdafG_min,0.005,0,0.1,0.001,secondary,Minimal loss of tree/shrib biomass due to fire in open vegetation,-
S,S,900,750,1100,1,secondary,Tipping point,mm/year
z,z,8,1,10,0.1,secondary,Exponent in the fire function (3),-
λ_f<SUB>T</SUB>_max,lambdafT_max,0.65,0.5,1,0.01,secondary,Maximal loss of GRASS biomass due to fire in systems with very large Tree Biomass,-
λ_f<SUB>T</SUB>_min,lambdafT_min,0.05,0,0.1,0.01,secondary,Minimal loss of GRASS biomass due to fire in systems with very large Tree Biomass,-
p,p,0.01,0.01,0.15,0.01,main,Intermediate TREE death rate per ha,/t
α,alpha,2.45,0.5,2.5,0.05,secondary,Half-saturation in (1),/t
b,b,600,500,700,1,secondary,Control the location of the inflection point in (5),mm/year
c,c,120,75,150,1,secondary,Steepness,mm/year
a,a,0.01,0.001,0.01,0.0001,main,Minimal facilitation value from TREE on GRASS,/year/t
d,d,0.0045,0.001,0.01,0.00001,main,Maximal competition value between TREE and GRASS,/year/t
